<svg width="13" height="14" viewBox="0 0 13 14" fill="none" xmlns="http://www.w3.org/2000/svg">
<path d="M10.777 2.39791C11.3618 2.98775 12.6283 4.52988 12.6283 7.15253C12.6283 9.16311 11.8497 10.9531 10.6801 12.0815C9.82839 12.8902 8.43779 13.6749 6.46409 13.6749C4.48699 13.6749 3.09979 12.8902 2.24639 12.0815C1.07679 10.9531 0.298187 9.16311 0.298187 7.15253C0.298187 4.52988 1.56639 2.98604 2.15289 2.39791C3.59109 0.97546 5.24519 0.681396 6.46579 0.681396C7.68129 0.681396 9.3388 0.97546 10.777 2.39791ZM4.73179 4.11443C4.14529 5.02056 4.09769 6.22075 4.09769 7.15253C4.09769 8.8434 4.36459 9.65207 4.65869 10.1684C5.12109 10.9771 5.80619 11.2233 6.46409 11.2233C7.12029 11.2233 7.80539 10.9754 8.26779 10.1684C8.56189 9.65207 8.8288 8.84511 8.8288 7.15253C8.8288 6.22075 8.78119 5.02056 8.19639 4.11443C7.78159 3.45278 7.24439 3.13307 6.46409 3.13307C5.68379 3.13307 5.14489 3.45449 4.73179 4.11443Z" fill="white"/>
</svg>
